syntR Tutorial • syntR
…
1. Load and format the map data

We begin by loading the example data:

# install the package if needed!
# devtools::install_github("ksamuk/syntR")

# load the syntR package
library("syntR")

# load the example marker data
data(ann_pet_map)
as_tibble(ann_pet_map)
#> # A tibble: 1,063 x 6
#>    map1_name          map1_chr map1_pos map2_name         map2_chr map2_pos
#>    <fct>              <fct>       <dbl> <fct>             <fct>       <dbl>
#>  1 HanXRQChr12_10463… Ann12       23.3  HanXRQChr12_1046… Pet12_16     0   
#>  2 HanXRQChr12_10463… Ann12       23.3  HanXRQChr12_1046… Pet12_16     3.66
#>  3 HanXRQChr12_67274… Ann12       51.1  HanXRQChr12_6727… Pet12_16     3.66
#>  4 HanXRQChr12_11545… Ann12       25.0  HanXRQChr12_1154… Pet12_16     3.66
#>  5 HanXRQChr12_11545… Ann12       25.0  HanXRQChr12_1154… Pet12_16     3.66
#>  6 HanXRQChr12_99372… Ann12       22.5  HanXRQChr12_9937… Pet12_16     4.57
#>  7 HanXRQChr12_33608… Ann12        9.06 HanXRQChr12_3360… Pet12_16     4.57
#>  8 HanXRQChr12_13257… Ann12       27.4  HanXRQChr12_1325… Pet12_16     7.22
#>  9 HanXRQChr12_17054… Ann12       32.0  HanXRQChr12_1705… Pet12_16    12.6 
#> 10 HanXRQChr12_17071… Ann12       32.0  HanXRQChr12_1707… Pet12_16    12.6 
#> # … with 1,053 more rows
…
When plots=TRUE, the function generates three plots showing the progress of the algorithm. In the first plot, mapping error is smoothed via a pre-clustering step. Next, outliers are flagged and removed. Finally, synteny blocks are identified via the syntR friends-of-friends clustering algorithm.

find_synteny_blocks() outputs a list object with containing five data frames:

# print the contents of synt_blocks

lapply(synt_blocks, as_tibble)
#> $marker_df
#> # A tibble: 1,173 x 12
#>    map1_name map1_chr map1_pos map1_posfull map2_name map2_chr map2_pos
#>    <fct>     <fct>       <dbl>        <dbl> <fct>     <fct>       <dbl>
#>  1 HanXRQCh… Ann12       23.3          223. HanXRQCh… Pet12_16     0   
#>  2 HanXRQCh… Ann12       23.3          223. HanXRQCh… Pet12_16     3.66
#>  3 HanXRQCh… Ann12       51.1          251. HanXRQCh… Pet12_16     3.66
#>  4 HanXRQCh… Ann12       25.0          225. HanXRQCh… Pet12_16     3.66
#>  5 HanXRQCh… Ann12       25.0          225. HanXRQCh… Pet12_16     3.66
#>  6 HanXRQCh… Ann12       22.5          223. HanXRQCh… Pet12_16     4.57
#>  7 HanXRQCh… Ann12        9.06         209. HanXRQCh… Pet12_16     4.57
#>  8 HanXRQCh… Ann12       27.4          228. HanXRQCh… Pet12_16     7.22
#>  9 HanXRQCh… Ann12       32.0          232. HanXRQCh… Pet12_16    12.6 
#> 10 HanXRQCh… Ann12       32.0          232. HanXRQCh… Pet12_16    12.6 
#> # … with 1,163 more rows, and 5 more variables: map2_posfull <dbl>,
#> #   cluster <int>, block <fct>, final_block <int>, orientation <chr>
#> 
#> $synteny_blocks_df
#> # A tibble: 41 x 8
#>    block map1_chr map1_start map1_end map2_chr map2_start map2_end
#>    <fct> <fct>         <dbl>    <dbl> <fct>         <dbl>    <dbl>
#>  1 5     Ann08         0.308     3.10 Pet8            0       5.87
#>  2 6     Ann08         7.97     11.6  Pet8           12.1    28.4 
#>  3 7     Ann08        15.4      23.0  Pet8           28.4    38.2 
#>  4 8     Ann08        24.9      28.6  Pet8           38.2    43.6 
#>  5 9     Ann08        32.6      34.8  Pet8           48.0    50.7 
#>  6 10    Ann08        29.1      32.6  Pet8           51.6    59.1 
#>  7 11    Ann08        37.5      42.2  Pet8           59.1    72.5 
#>  8 12    Ann08        42.7      47.8  Pet8           75.2    82.6 
#>  9 14    Ann08        51.1      63.1  Pet8           82.6   104.  
#> 10 29    Ann09         1.96     28.6  Pet9            0      32.4 
#> # … with 31 more rows, and 1 more variable: orientation <chr>
#> 
#> $map1_breaks
#> # A tibble: 35 x 2
#>     start    end
#>     <dbl>  <dbl>
#>  1   3.10   7.97
#>  2  11.6   15.4 
#>  3  23.0   24.9 
#>  4  28.6   29.1 
#>  5  32.6   32.6 
#>  6  34.8   37.5 
#>  7  42.2   42.7 
#>  8  47.8   51.1 
#>  9 112.   117.  
#> 10 128.   137.  
#> # … with 25 more rows
#> 
#> $map2_breaks
#> # A tibble: 35 x 2
#>     start   end
#>     <dbl> <dbl>
#>  1   5.87  12.1
#>  2  28.4   28.4
#>  3  38.2   38.2
#>  4  43.6   48.0
#>  5  50.7   51.6
#>  6  59.1   59.1
#>  7  72.5   75.2
#>  8  82.6   82.6
#>  9 176.   179. 
#> 10 194.   194. 
#> # … with 25 more rows
…
